<svg width="554" height="540" viewBox="0 0 554 540" fill="none" xmlns="http://www.w3.org/2000/svg">
<g clip-path="url(#clip0)">
<path d="M385.81 143.032C429.925 201.299 483.723 248.847 480.806 292.341C477.89 335.726 418.273 374.955 352.203 410.465C286.031 446.019 213.508 477.854 156.771 457.911C100.035 437.969 59.0626 366.037 47.2064 293.413C35.3501 220.789 52.3324 147.29 94.7919 89.4459C137.251 31.6017 204.976 -10.8571 256.164 2.46459C307.352 15.7863 341.695 84.6626 385.81 143.032Z" fill="#F2F2F2"/>
<path d="M300.556 296.352V478.67" stroke="#A4A4A4" stroke-width="3" stroke-linecap="round" stroke-linejoin="round"/>
<path d="M380.181 105.145H374.858C370.026 105.145 366.108 109.062 366.108 113.895V128.492C366.108 133.325 370.026 137.242 374.858 137.242H380.181C385.013 137.242 388.931 133.325 388.931 128.492V113.895C388.931 109.062 385.013 105.145 380.181 105.145Z" fill="#6BD5E1"/>
<path d="M289.545 495.171C288.736 497.191 283.216 509.58 283.216 509.58L301.052 516.375L306.375 498.671L289.545 495.171Z" fill="#E49D75"/>
<path d="M391.68 477.657L395.348 491.19L379.291 499.043L368.704 488.026L391.68 477.657Z" fill="#E49D75"/>
<path d="M368.667 218.339C366.837 220.454 351.678 238.639 350.591 240.075C349.505 241.512 305.12 255.001 302.78 255.628C300.439 256.255 292.024 259.916 289.655 259.916C287.285 259.916 279.68 257.4 276.53 257.918C273.38 258.436 263.324 264.32 264.294 266.668C265.264 269.016 373.822 261.177 373.822 261.177L385.657 224.347L368.667 218.339Z" fill="#D38D6A"/>
<path d="M389.959 388.24L362.375 530.339" stroke="#E0E0E0" stroke-width="2" stroke-linecap="round" stroke-linejoin="round"/>
<path d="M491.612 156.368H554L494.835 388.24H380.494V373.147L444.515 330.637L491.612 156.368Z" fill="#E0E0E0"/>
<path d="M362.397 374.94C365.561 381.408 392.292 472.203 392.985 477.482C389.58 481.055 374.814 489.003 368.507 489.52C357.825 481.113 327.892 410.516 327.892 410.516C327.892 410.516 338.086 351.943 362.397 374.94Z" fill="#5FC5D1"/>
<path d="M491.124 288.448C493.443 291.204 500.946 331.884 502.061 342.405C503.775 358.943 471.713 383.165 426.454 383.165C411.513 383.165 362.046 379.833 347.835 374.466C347.106 383.457 311.275 495.587 307.213 499.648C300.541 501.391 290.676 497.767 288.211 495.273C285.746 492.78 305.332 337.877 310.815 327.873C316.298 317.869 428.022 310.352 428.022 310.352L491.124 288.448Z" fill="#6BD5E1"/>
<path d="M413.569 172.337C434.548 184.579 403.179 238.056 399.212 239.419C392.89 238.69 370.877 225.82 366.75 216.349C365.86 210.53 395.654 161.873 413.569 172.337Z" fill="#FFC78E"/>
<path d="M425.192 150.141C460.258 150.141 494.026 284.007 492.64 289.366C489.804 300.355 432.36 320.45 423.143 311.817C399.832 290.001 356.84 150.141 425.192 150.141Z" fill="#FFD98E"/>
<path d="M488.244 388.24L515.828 530.339" stroke="#E0E0E0" stroke-width="2" stroke-linecap="round" stroke-linejoin="round"/>
<path d="M302.401 516.915L293.249 540L243.848 517.987L248.756 508.099L284.835 509.171L302.401 516.915Z" fill="black"/>
<path d="M395.647 489.521L407.787 511.184L359.538 535.625L354.966 525.57L378.562 498.263L395.647 489.521Z" fill="black"/>
<path d="M416.887 135.397C417.682 139.831 422.721 153.196 424.908 155.646C427.096 158.096 415.32 172.417 402.224 169.792C401.83 165.293 400.277 152.554 398.221 150.44C396.164 148.325 416.887 135.397 416.887 135.397Z" fill="#D38D6A"/>
<path d="M405.321 150.431C419.545 145.79 425.965 126.365 419.661 107.046C413.357 87.726 396.715 75.827 382.491 80.4684C368.267 85.1099 361.847 104.534 368.151 123.854C374.456 143.174 391.097 155.073 405.321 150.431Z" fill="#E49D75"/>
<path d="M372.335 65.3618C386.86 65.3618 424.186 91.1667 424.186 117.132C424.186 131.066 421.722 134.632 420.788 134.632C419.855 134.632 410.842 127.639 410.842 122.615C410.842 117.591 409.071 110.161 407.342 110.161C404.426 110.161 403.996 113.406 396.66 113.406C393.853 113.406 388.581 110.059 388.581 106.216C382.624 106.319 382.624 108.287 374.45 108.287C365.189 108.287 342.439 103.606 342.439 96.4166C342.439 91.5458 348.79 88.1917 355.046 89.3802C350.81 87.1125 347.026 82.4313 347.026 79.3324C347.026 74.9939 352.494 71.9971 356.731 71.9971C361.755 71.9971 366.086 74.1117 368.252 76.1825C366.524 73.1929 368.23 65.3618 372.335 65.3618Z" fill="#FD8369"/>
<path d="M406.183 124.992C410.343 124.992 413.715 121.62 413.715 117.46C413.715 113.3 410.343 109.928 406.183 109.928C402.023 109.928 398.651 113.3 398.651 117.46C398.651 121.62 402.023 124.992 406.183 124.992Z" fill="#E49D75"/>
<path d="M378.154 285.757H0V296.359H378.154V285.757Z" fill="#A4A4A4"/>
<path d="M345.626 268.534H189.073H188.68H32.1271L0 285.662H188.68H189.073H377.76L345.626 268.534Z" fill="#E0E0E0"/>
<path d="M47.6219 296.352V518.716" stroke="#A4A4A4" stroke-width="3" stroke-linecap="round" stroke-linejoin="round"/>
<path d="M77.5908 296.352V478.67" stroke="#A4A4A4" stroke-width="3" stroke-linecap="round" stroke-linejoin="round"/>
<path d="M330.532 296.352V518.716" stroke="#A4A4A4" stroke-width="3" stroke-linecap="round" stroke-linejoin="round"/>
<path d="M290.063 269.723H223.016V274.317H290.063V269.723Z" fill="#A4A4A4"/>
<path d="M151.951 264.006H139.118V279.282H151.951V264.006Z" fill="#A4A4A4"/>
<path d="M272.702 283.664C281.005 283.664 287.737 280.517 287.737 276.635C287.737 272.753 281.005 269.606 272.702 269.606C264.398 269.606 257.666 272.753 257.666 276.635C257.666 280.517 264.398 283.664 272.702 283.664Z" fill="#F2F2F2"/>
<path d="M379.357 225.645C377.169 228.03 363.782 247.279 362.338 249.314C331.713 252.887 291.244 262.708 289.757 262.759C288.269 262.811 271.251 257.298 268.968 257.699C266.686 258.1 262.019 266.281 262.216 267.966C262.413 269.65 275.815 277.744 291.244 277.54C294.161 277.343 295.116 275.753 298.142 275.753C301.168 275.753 370.33 281.098 382.332 274.827C388.858 271.407 407.197 245.617 407.197 243.685C407.197 241.752 379.357 225.645 379.357 225.645Z" fill="#E49D75"/>
<path d="M423.012 178.578C443.983 190.821 412.622 244.297 408.655 245.661C402.326 244.932 380.319 232.062 376.185 222.59C375.295 216.771 405.089 168.115 423.012 178.578Z" fill="#FFE4AD"/>
<path d="M134.386 74.4325H128.239V272.304H134.386V74.4325Z" fill="#E0E0E0"/>
<path d="M134.378 74.4325V173.365V272.304L163.443 261.673V173.365V85.0563L134.378 74.4325Z" fill="#A4A4A4"/>
<path d="M408.268 105.145H402.946C398.113 105.145 394.196 109.062 394.196 113.895V128.492C394.196 133.325 398.113 137.242 402.946 137.242H408.268C413.101 137.242 417.018 133.325 417.018 128.492V113.895C417.018 109.062 413.101 105.145 408.268 105.145Z" fill="#6BD5E1"/>
<path d="M406.183 109.191C406.183 105.145 407.583 81.3085 394.196 74.2721" stroke="#6BD5E1" stroke-width="6" stroke-linecap="round" stroke-linejoin="round"/>
<path d="M405.607 137.242C405.607 139.568 404.688 152.759 394.669 152.759" stroke="#A4A4A4" stroke-width="6" stroke-linecap="round" stroke-linejoin="round"/>
</g>
<defs>
<clipPath id="clip0">
<rect width="554" height="540" fill="white"/>
</clipPath>
</defs>
</svg>
