<svg width="439" height="439" viewBox="0 0 439 439" fill="none" xmlns="http://www.w3.org/2000/svg">
<path d="M393.278 32.6396H217.598V287.841H393.278V32.6396Z" fill="#F3F3F3"/>
<path d="M91.7437 344.469H39.1442V407.004H91.7437V344.469Z" fill="#FD8369"/>
<path d="M159.712 297.163H107.112V407.004H159.712V297.163Z" fill="#FD8369"/>
<path d="M227.676 242.76H175.077V407.008H227.676V242.76Z" fill="#FD8369"/>
<path d="M132.571 301.842H126.461V306.32H132.571V301.842Z" fill="#DE8E68"/>
<path d="M199.595 243.93H193.486V248.408H199.595V243.93Z" fill="#DE8E68"/>
<path d="M167.987 174.466C171.645 174.466 200.996 178.611 213.837 185.207C212.07 193.808 200.524 244.472 200.524 244.472H193.336C193.336 244.472 190.628 201.819 190.043 202.174C186.154 204.175 170.72 209.224 154.224 209.469" fill="#56CAD8"/>
<path d="M167.987 174.466L132.797 302.431H126.461V174.466" fill="#74D5DE"/>
<path d="M174.503 120.685C176.277 121.457 182.357 126.538 183.443 128.367C193.372 116.006 209.747 103.531 211.086 102.089C212.425 100.648 212.842 92.618 212.842 90.862C212.842 89.106 215.264 84.427 217.598 84.427V105.481C217.598 105.481 190.197 143.912 185.686 143.912C182.759 143.912 168.305 137.561 166.297 135.64" fill="#DE8E68"/>
<path d="M152.187 113.61C155.801 107.756 176.698 116.822 176.698 119.62C176.698 122.419 168.949 135.307 165.477 135.124C162.712 134.992 148.444 119.686 152.187 113.61Z" fill="#FCC486"/>
<path d="M147.113 105.119C173.665 105.119 172.179 171.232 167.987 174.466C163.795 177.7 129.384 179.269 126.238 174.466C123.092 169.663 121.874 105.119 147.113 105.119Z" fill="#FED385"/>
<path d="M118.395 125.989C113.679 127.471 101.548 150.343 101.548 153.833C101.548 161.15 126.249 193.376 129.392 193.376C130.701 191.104 132.797 186.392 132.797 186.392C132.797 186.392 117.959 158.72 115.237 155.143C117.593 152.948 126.147 141.438 127.544 137.861C128.942 134.283 128.418 126.6 128.418 126.6L118.395 125.989Z" fill="#DE8E68"/>
<path d="M135.336 112.194C141.358 115.486 133.416 136.822 130.621 136.997C127.826 137.173 114.55 130.079 114.55 126.604C114.55 123.809 129.073 108.759 135.336 112.194Z" fill="#FED892"/>
<path d="M126.461 305.372V310.786H142.777V308.822L132.871 305.372H126.461Z" fill="black"/>
<path d="M193.219 247.914V253.329H209.538V251.368L199.632 247.914H193.219Z" fill="black"/>
<path d="M393.278 32.6396H217.598V49.0765H393.278V32.6396Z" fill="#DFDFDF"/>
<path d="M405.709 69.7791H258.169V111.817H405.709V69.7791Z" fill="#DFDFDF"/>
<path d="M398.689 77.9152H266.784V81.7235H398.689V77.9152Z" fill="#F9F9F9"/>
<path d="M398.689 86.9879H266.784V90.7962H398.689V86.9879Z" fill="#F9F9F9"/>
<path d="M398.689 96.0642H266.784V99.8725H398.689V96.0642Z" fill="#F9F9F9"/>
<path d="M405.709 128.711H258.169V170.749H405.709V128.711Z" fill="#DFDFDF"/>
<path d="M277.821 162.247C284.735 162.247 290.34 156.642 290.34 149.728C290.34 142.814 284.735 137.209 277.821 137.209C270.907 137.209 265.302 142.814 265.302 149.728C265.302 156.642 270.907 162.247 277.821 162.247Z" fill="#F9F9F9"/>
<path d="M395.627 137.209H299.577V149.319H395.627V137.209Z" fill="#F9F9F9"/>
<path d="M395.627 153.423H299.577V157.872H395.627V153.423Z" fill="#F9F9F9"/>
<path d="M373.344 188.982H234.77V257.159H373.344V188.982Z" fill="white"/>
<path d="M153.701 92.1095H143.184V107.032C143.184 110.738 153.701 110.8 153.701 107.032V92.1095Z" fill="#D37C59"/>
<path d="M161.387 85.2684C159.536 77.3408 153.65 71.9411 148.239 73.1959C143.604 74.2934 140.828 79.898 141.288 86.472C140.491 86.7023 139.804 87.2126 139.353 87.909C138.901 88.6055 138.717 89.4414 138.832 90.2632C138.948 91.0849 139.356 91.8374 139.982 92.3822C140.608 92.927 141.41 93.2277 142.24 93.2289C142.451 93.2269 142.661 93.2061 142.869 93.1668C145.378 99.2103 150.336 102.975 154.941 101.899C160.352 100.644 163.238 93.1924 161.387 85.2684Z" fill="#DE8E68"/>
<path d="M143.974 88.9743C145.357 88.9743 145.598 87.0647 145.598 85.3709C145.598 83.1027 147.753 81.054 149.081 80.6663C151.484 79.9712 152.71 79.8102 154.166 79.02C155.622 78.2298 157.356 77.0408 157.356 77.0408C158 77.817 158.586 78.6399 159.108 79.5029C160.444 79.1371 167.438 77.4689 167.438 72.457C167.438 69.1645 164.673 68.7328 163.414 67.7011C162.075 66.6036 162.65 63.2855 159.024 63.2855C155.776 63.2855 154.177 66.6987 152.099 68.0121C149.586 69.6035 144.654 68.323 141.406 71.6704C139.829 73.2947 139.459 77.2933 138.479 78.7566C137.14 80.7394 134.821 81.3174 134.821 84.3429C134.821 86.5635 136.705 90.3133 138.973 90.862C138.973 88.667 139.774 86.5672 141.398 86.5672C143.165 86.5672 141.943 88.9743 143.974 88.9743Z" fill="#FD8369"/>
</svg>
