<svg width="435" height="178" viewBox="0 0 435 178" fill="none" xmlns="http://www.w3.org/2000/svg">
<g clip-path="url(#clip0)">
<path d="M291.54 1.13599H302.164V2.77804H297.778V19.8095H295.897V2.77804H291.54V1.13599Z" fill="#EEEEEE"/>
<path d="M304.601 19.8096V0H306.483V6.68276H306.541C307.87 5.48043 309.606 4.80058 311.415 4.7734C313.988 4.7734 315.577 6.41545 315.577 9.25084V19.8096H313.696V9.54679C313.696 7.2842 312.594 6.4059 310.888 6.4059C309.245 6.48406 307.682 7.12619 306.473 8.21979V19.8096H304.601Z" fill="#EEEEEE"/>
<path d="M320.684 13.1648C320.684 17.2126 322.507 18.511 325.246 18.511C326.474 18.4813 327.683 18.2119 328.804 17.7186L329.096 17.8618C329.096 17.8618 329.213 18.7115 329.242 19.1315C327.941 19.8545 326.459 20.2082 324.963 20.153C321.064 20.153 318.803 17.8904 318.803 12.8784V11.9237C318.803 7.42715 321.172 4.79224 324.525 4.79224H324.729C327.79 4.79224 329.788 6.7016 329.788 10.5967V11.0454C329.772 11.7673 329.713 12.4877 329.613 13.203L320.684 13.1648ZM320.684 11.685H327.995V10.4153C327.995 7.21712 326.347 6.3961 324.7 6.3961H324.495C322.546 6.3961 320.684 7.80902 320.684 11.3222V11.685Z" fill="#EEEEEE"/>
<path d="M339.526 1.13599H348.201V2.77803H341.378V9.33668H347.304V10.8355H341.378V18.1388H348.454V19.7809H339.496L339.526 1.13599Z" fill="#EEEEEE"/>
<path d="M359.322 10.4152C359.322 7.75168 358.484 6.39603 355.219 6.39603C353.944 6.40726 352.677 6.59693 351.456 6.95929L351.232 6.76836C351.232 6.62515 351.437 5.54637 351.486 5.31724C352.749 4.93942 354.063 4.74955 355.385 4.75398C359.712 4.75398 361.233 6.66334 361.233 10.4152V16.4202C361.233 17.9477 361.72 18.3964 362.675 18.5682L363.134 18.6541L363.251 18.8546C363.192 19.0455 362.968 19.9525 362.968 19.9525C362.664 20.094 362.33 20.1627 361.993 20.153C360.482 20.153 359.537 19.1315 359.391 17.4608H359.303C358.845 18.2827 358.168 18.9673 357.344 19.4415C356.52 19.9157 355.58 20.1616 354.624 20.153C354.033 20.17 353.445 20.0689 352.895 19.8561C352.345 19.6432 351.845 19.3229 351.426 18.9148C351.006 18.5066 350.676 18.0191 350.455 17.4819C350.234 16.9447 350.127 16.3691 350.141 15.7901V15.6564C350.141 13.0501 351.583 11.4654 354.761 11.0931L359.303 10.5584L359.322 10.4152ZM359.322 15.6564V12.1146L355.277 12.5919C352.85 12.8783 352.041 13.9571 352.041 15.5132V15.6564C352.014 16.0395 352.071 16.4238 352.208 16.7835C352.345 17.1432 352.559 17.4698 352.837 17.7413C353.114 18.0128 353.447 18.2229 353.815 18.3573C354.182 18.4917 354.574 18.5474 354.965 18.5205C356.954 18.5109 358.367 17.0121 359.322 15.6564Z" fill="#EEEEEE"/>
<path d="M365.522 18.3396L365.814 18.1391C366.971 18.3787 368.15 18.5035 369.333 18.5114C371.848 18.5114 373.183 17.5567 373.183 15.7046C373.183 14.4349 372.491 13.6425 370.347 13.1652L368.67 12.7929C366.331 12.2869 365.005 11.4086 365.005 8.97415C365.005 6.7402 366.418 4.72583 370.551 4.72583C371.639 4.75553 372.722 4.88013 373.787 5.09816C373.729 5.66142 373.67 6.42516 373.641 6.53972L373.319 6.68292C372.397 6.50547 371.461 6.40013 370.522 6.36788C367.686 6.36788 366.847 7.44667 366.847 8.97415C366.847 10.1866 367.744 10.8835 369.274 11.2081L370.98 11.5804C373.904 12.201 375.025 13.5853 375.025 15.676C375.025 18.54 373.154 20.1248 369.391 20.1248C368.13 20.1363 366.872 20.0114 365.639 19.7525C365.522 19.2465 365.522 18.3396 365.522 18.3396Z" fill="#EEEEEE"/>
<path d="M377.667 5.0979L381.215 14.7211C381.507 15.5135 381.946 17.3178 381.946 17.3178H382.141C382.141 17.3178 382.492 15.628 382.784 14.7211L385.932 5.0979H387.833L382.346 21.9575C381.42 24.8216 380.396 25.8335 378.651 25.8335C378.116 25.8492 377.584 25.7515 377.092 25.5471L377.287 24.3061L377.55 24.0769C377.833 24.1509 378.124 24.1894 378.417 24.1915C379.392 24.1915 379.831 23.7332 380.552 21.6139L381.166 19.8286L375.756 5.0979H377.667Z" fill="#EEEEEE"/>
<path d="M304.202 40.8887C304.281 41.9239 303.985 42.9533 303.366 43.7965C302.748 44.6396 301.846 45.2426 300.819 45.4998V45.5571C301.113 45.8208 301.34 46.1476 301.482 46.5118L304.601 53.7291H302.584L299.435 46.5404C299.345 46.2902 299.167 46.0792 298.934 45.9447C298.7 45.8103 298.426 45.7609 298.159 45.8053H295.098V53.7291H293.217V35.0842H297.866C302.35 35.0842 304.202 37.1272 304.202 40.5545V40.8887ZM295.098 36.7263V44.3637H298.188C301.112 44.3637 302.321 43.0845 302.321 40.9364V40.65C302.321 37.7096 300.732 36.7167 297.73 36.7167L295.098 36.7263Z" fill="#EEEEEE"/>
<path d="M308.764 47.1139C308.764 51.1617 310.586 52.4696 313.325 52.4696C314.553 52.44 315.763 52.1706 316.883 51.6773L317.175 51.8205C317.175 51.8205 317.283 52.6701 317.312 53.0902C316.014 53.8142 314.535 54.1681 313.043 54.1117C309.144 54.1117 306.882 51.8491 306.882 46.837V45.8251C306.882 41.3285 309.251 38.6936 312.604 38.6936H312.809C315.869 38.6936 317.867 40.603 317.867 44.4981V44.9468C317.851 45.6655 317.793 46.3827 317.692 47.0948L308.764 47.1139ZM308.764 45.6437H316.074V44.374C316.074 41.1758 314.427 40.3547 312.779 40.3547H312.575C310.625 40.3547 308.764 41.7677 308.764 45.2809V45.6437Z" fill="#EEEEEE"/>
<path d="M329.798 53.462C328.755 53.8902 327.635 54.1109 326.503 54.1111C322.605 54.1111 320.519 52.2018 320.519 46.8365V46.4069C320.519 40.7456 322.683 38.7122 326.679 38.7122C327.638 38.7052 328.592 38.8469 329.506 39.1322C329.447 39.6764 329.301 40.5261 329.301 40.5261L329.106 40.6597C328.31 40.4744 327.497 40.372 326.679 40.3542C324.106 40.3542 322.4 41.4044 322.4 46.4355V46.8365C322.4 51.734 324.505 52.4691 326.62 52.4691C327.554 52.4314 328.478 52.2576 329.359 51.9536L329.593 52.0968C329.623 52.24 329.739 52.9178 329.798 53.462Z" fill="#EEEEEE"/>
<path d="M332.478 53.768V39.0468H333.638L334.155 40.8034C334.525 40.1493 335.071 39.6078 335.735 39.2389C336.399 38.8699 337.154 38.6878 337.917 38.7127C338.196 38.7155 338.473 38.7442 338.746 38.7986L338.58 40.3547L338.317 40.5552C338.078 40.519 337.837 40.4999 337.596 40.4979C336.901 40.4896 336.22 40.684 335.638 41.0563C335.056 41.4286 334.601 41.9621 334.33 42.5887V53.768H332.478Z" fill="#EEEEEE"/>
<path d="M343.103 39.0461V49.2421C343.103 51.5524 344.302 52.5071 346.027 52.5071C347.977 52.5071 349.458 51.0656 350.413 49.6431V39.0461H352.295V50.3686C352.295 51.9248 352.811 52.3544 353.737 52.5262L354.205 52.6121L354.312 52.8031L354.03 53.9105C353.75 54.0425 353.443 54.111 353.133 54.111C351.632 54.111 350.677 53.1563 350.501 51.4188H350.413C349.959 52.2435 349.283 52.9304 348.458 53.4051C347.633 53.8797 346.691 54.1239 345.735 54.111C343.278 54.111 341.309 52.4976 341.309 49.3376V39.0461H343.103Z" fill="#EEEEEE"/>
<path d="M357.792 34.3686C358.045 34.3686 358.291 34.442 358.501 34.5794C358.711 34.7168 358.875 34.9121 358.972 35.1407C359.068 35.3692 359.094 35.6206 359.044 35.8632C358.995 36.1058 358.874 36.3287 358.695 36.5036C358.516 36.6785 358.289 36.7976 358.041 36.8459C357.793 36.8941 357.537 36.8694 357.303 36.7747C357.07 36.68 356.871 36.5197 356.73 36.3141C356.59 36.1084 356.515 35.8666 356.515 35.6193C356.507 35.4529 356.534 35.2866 356.595 35.1311C356.657 34.9757 356.75 34.8345 356.871 34.7167C356.991 34.5989 357.135 34.5071 357.294 34.4471C357.452 34.3872 357.622 34.3604 357.792 34.3686ZM356.866 39.0657H358.699V53.7677H356.827L356.866 39.0657Z" fill="#EEEEEE"/>
<path d="M361.34 39.0468H363.514L363.943 35.6577H365.385V39.0468H369.235V40.6889H365.385V49.9493C365.385 51.9255 366.253 52.4696 367.5 52.4696C367.996 52.4655 368.489 52.4079 368.972 52.2978L369.235 52.441V53.8253C368.603 54.0137 367.946 54.1102 367.286 54.1117C364.713 54.1117 363.504 52.8324 363.504 50.0065V40.6889H361.33L361.34 39.0468Z" fill="#EEEEEE"/>
<path d="M371.916 53.768V39.0468H373.076L373.592 40.7748C374.173 40.1395 374.881 39.6284 375.673 39.2736C376.465 38.9188 377.323 38.7278 378.193 38.7127C378.928 38.6748 379.655 38.8685 380.269 39.2654C380.883 39.6623 381.351 40.2415 381.605 40.918C382.2 40.2475 382.931 39.7054 383.752 39.3258C384.572 38.9462 385.464 38.7374 386.371 38.7127C388.632 38.7127 390.104 40.1256 390.104 42.7605V53.768H388.223V43.066C388.223 41.0898 387.151 40.3547 385.854 40.3547C384.335 40.4735 382.919 41.1565 381.897 42.2641C381.897 42.2641 381.897 42.7223 381.897 43.2188V53.7202H380.016V43.066C380.016 41.0039 378.944 40.3547 377.676 40.3547C376.176 40.4829 374.782 41.1656 373.778 42.2641V53.768H371.916Z" fill="#EEEEEE"/>
<path d="M395.202 47.1139C395.202 51.1617 397.025 52.4696 399.764 52.4696C400.992 52.4415 402.202 52.1721 403.322 51.6773L403.614 51.8205C403.614 51.8205 403.731 52.6701 403.76 53.0902C402.458 53.8131 400.977 54.1668 399.481 54.1117C395.582 54.1117 393.321 51.8491 393.321 46.837V45.8251C393.321 41.3285 395.689 38.6936 399.042 38.6936H399.247C402.308 38.6936 404.306 40.603 404.306 44.4981V44.9468C404.29 45.6655 404.231 46.3827 404.131 47.0948L395.202 47.1139ZM395.202 45.6437H402.561V44.374C402.561 41.1758 400.914 40.3547 399.267 40.3547H399.062C397.113 40.3547 395.251 41.7677 395.251 45.2809L395.202 45.6437Z" fill="#EEEEEE"/>
<path d="M407.63 53.7672V39.0461H408.78L409.326 40.8027C410.708 39.5083 412.532 38.7632 414.443 38.7119C417.075 38.7119 418.605 40.3826 418.605 43.1798V53.7672H416.724V43.4949C416.724 41.2323 415.632 40.354 413.926 40.354C412.28 40.4339 410.715 41.0757 409.501 42.1679V53.7672H407.63Z" fill="#EEEEEE"/>
<path d="M421.081 39.0468H423.245L423.683 35.6577H425.126V39.0468H428.966V40.6889H425.126V49.9493C425.126 51.9255 425.993 52.4696 427.231 52.4696C427.727 52.4655 428.221 52.4079 428.703 52.2978L428.966 52.441V53.8253C428.334 54.0137 427.678 54.1102 427.017 54.1117C424.453 54.1117 423.235 52.8324 423.235 50.0065V40.6889H421.081V39.0468Z" fill="#EEEEEE"/>
<path d="M299.63 88.0693C295.965 88.0693 292.671 86.4273 292.671 79.2386V78.2839C292.671 71.2383 295.595 68.7371 299.494 68.7371C300.46 68.7354 301.421 68.8672 302.35 69.1285C302.262 69.8636 302.174 70.4937 302.174 70.4937L301.921 70.656C301.15 70.4811 300.363 70.3882 299.572 70.3791C295.731 70.3791 294.581 73.7682 294.581 78.3316V78.9235C294.581 84.1838 296.17 86.4559 299.747 86.4559C300.66 86.4368 301.566 86.2922 302.438 86.0263L302.701 86.1409C302.701 86.1409 302.808 86.876 302.866 87.5252C301.832 87.9044 300.734 88.089 299.63 88.0693Z" fill="#EEEEEE"/>
<path d="M310.294 72.6699C313.881 72.6699 315.957 75.2762 315.957 79.7727V80.9565C315.957 85.4626 313.881 88.0689 310.294 88.0689H310.06C306.483 88.0689 304.397 85.4626 304.397 80.9565V79.7727C304.397 75.2762 306.483 72.6699 310.06 72.6699H310.294ZM314.076 79.429C314.076 76.4027 312.926 74.312 310.177 74.312C307.428 74.312 306.278 76.4027 306.278 79.429V81.3384C306.278 84.3934 307.438 86.4364 310.177 86.4364C312.916 86.4364 314.076 84.3934 314.076 81.3384V79.429Z" fill="#EEEEEE"/>
<path d="M319.281 87.725V73.0038H320.431L320.957 74.7318C321.537 74.0956 322.245 73.584 323.037 73.2291C323.829 72.8742 324.687 72.6837 325.558 72.6697C326.293 72.6318 327.02 72.8255 327.634 73.2224C328.248 73.6193 328.716 74.1985 328.969 74.875C329.564 74.2032 330.295 73.6601 331.115 73.2804C331.936 72.9007 332.828 72.6927 333.736 72.6697C335.987 72.6697 337.469 74.0826 337.469 76.7175V87.725H335.588V77.023C335.588 75.0469 334.516 74.3118 333.219 74.3118C331.699 74.4276 330.282 75.1112 329.262 76.2211C329.262 76.2211 329.262 76.6794 329.262 77.1758V87.6773H327.381V77.023C327.381 74.9609 326.308 74.3118 325.041 74.3118C323.543 74.4455 322.151 75.1272 321.142 76.2211V87.7727L319.281 87.725Z" fill="#EEEEEE"/>
<path d="M341.349 93.3865V73.0041H342.508L342.967 74.4552C344.237 73.3466 345.867 72.7142 347.567 72.6699C350.569 72.6699 352.626 74.5793 352.626 79.7727V81.0711C352.626 86.0546 350.365 88.0689 347.567 88.0689C345.979 88.0493 344.455 87.4541 343.288 86.3982H343.23V93.3865H341.349ZM350.745 80.021C350.745 75.6008 349.361 74.2929 347.129 74.2929C345.718 74.3655 344.36 74.8473 343.23 75.6772V84.7085C344.252 85.6839 345.582 86.2899 347.002 86.4269C349.604 86.4269 350.706 84.3552 350.706 80.9852L350.745 80.021Z" fill="#EEEEEE"/>
<path d="M364.235 78.3313C364.235 75.6678 363.397 74.3121 360.131 74.3121C358.859 74.3228 357.596 74.5125 356.379 74.8754L356.145 74.6749C356.145 74.5317 356.35 73.4624 356.408 73.2333C357.671 72.8539 358.986 72.664 360.307 72.6701C364.635 72.6701 366.155 74.5794 366.155 78.3313V84.3267C366.155 85.8542 366.643 86.3125 367.598 86.4843L368.056 86.5702L368.173 86.7612C368.114 86.9616 367.89 87.8686 367.89 87.8686C367.601 88.0029 367.284 88.0714 366.964 88.0691C365.463 88.0691 364.508 87.0476 364.362 85.3769H364.274C363.816 86.1988 363.139 86.8834 362.315 87.3576C361.491 87.8318 360.551 88.0777 359.595 88.0691C359.004 88.0861 358.416 87.985 357.866 87.7722C357.316 87.5593 356.816 87.239 356.397 86.8309C355.977 86.4227 355.647 85.9352 355.426 85.398C355.205 84.8608 355.098 84.2852 355.112 83.7062V83.563C355.112 80.9567 356.554 79.3719 359.732 79.0091L364.274 78.4745L364.235 78.3313ZM364.235 83.563V80.0307L360.19 80.508C357.763 80.7944 356.954 81.8636 356.954 83.372V83.5152C356.926 83.8983 356.983 84.2826 357.12 84.6423C357.258 85.002 357.472 85.3286 357.749 85.6001C358.027 85.8717 358.36 86.0817 358.727 86.2161C359.095 86.3506 359.487 86.4062 359.878 86.3793C361.866 86.427 363.28 84.9664 364.235 83.563Z" fill="#EEEEEE"/>
<path d="M370.736 87.7252V73.0041H371.887L372.442 74.7607C373.819 73.4646 375.641 72.719 377.55 72.6699C380.181 72.6699 381.712 74.3406 381.712 77.1378V87.7252H379.84V77.4529C379.84 75.1903 378.739 74.312 377.033 74.312C375.389 74.3925 373.825 75.0303 372.608 76.1163V87.7252H370.736Z" fill="#EEEEEE"/>
<path d="M385.406 73.0042L388.964 82.6273C389.256 83.4197 389.685 85.2336 389.685 85.2336H389.89C389.89 85.2336 390.231 83.5343 390.523 82.6273L393.672 73.0042H395.621L390.133 89.8447C389.207 92.7087 388.184 93.7302 386.43 93.7302C385.895 93.7459 385.363 93.6482 384.87 93.4438L385.075 92.2028L385.338 91.9736C385.618 92.0471 385.906 92.0856 386.196 92.0882C387.17 92.0882 387.619 91.6299 388.34 89.5106L388.944 87.7253L383.544 73.0042H385.406Z" fill="#EEEEEE"/>
<path d="M37.5561 45.911H15.7321V54.3312H35.8406V67.7827H15.7321V77.3295H38.3359V91.4492H0V32.5264H37.5561V45.911Z" fill="#89B3E0"/>
<path d="M87.1502 53.6525V78.4742C87.1502 81.7583 86.9845 83.1903 90.6787 83.1903V90.9423C85.4347 92.0306 75.3756 93.5486 75.3756 85.8061V85.3001C74.2097 87.4127 72.4701 89.1683 70.3491 90.3729C68.2281 91.5776 65.8083 92.1843 63.3572 92.1261C50.4616 91.8779 44.701 82.2738 44.701 70.579C45.1299 56.6025 54.9356 49.7001 69.0691 49.9484C75.2769 50.0879 81.4057 51.3434 87.1502 53.6525ZM72.968 61.9009C71.3074 61.5143 69.6063 61.3189 67.8994 61.3186C62.7431 61.3186 59.5655 64.1826 59.3024 70.8654C59.3901 76.2498 61.7977 79.5339 66.6128 79.4575C70.9991 79.4575 72.89 75.7533 72.968 70.7031V61.9009Z" fill="#89B3E0"/>
<path d="M110.622 78.5705C110.622 81.1864 113.019 82.1888 115.427 82.1888C117.835 82.1888 120.242 81.1004 120.242 78.9906C120.242 76.4702 118.01 76.1266 115.69 75.8783C107.522 74.9237 97.0339 73.4344 97.0339 63.4675C97.0339 54.0353 106.235 49.6628 115.554 49.6628C125.009 49.6628 134.288 54.5413 133.859 63.4675H121.022C120.759 61.4436 118.263 60.3552 115.856 60.4316C113.448 60.508 111.479 61.4436 111.479 63.1334C111.216 65.6537 114.316 65.7396 116.294 65.9974C125.486 66.9521 135.282 68.1932 135.029 78.9619C134.766 88.1746 125.486 92.6043 115.992 92.6043C106.499 92.6043 96.6051 90.2749 96.3516 78.5705H110.622Z" fill="#89B3E0"/>
<path d="M171.727 85.9213C170.911 87.783 169.538 89.3588 167.789 90.441C166.04 91.5232 163.998 92.061 161.931 91.9835C148.86 92.2412 144.054 83.821 144.054 71.8684V63.4195C144.054 60.1354 143.538 59.0375 139.844 59.0375V50.9609C148.948 48.7747 158.363 50.0062 158.363 61.0614V71.6679C158.363 76.0499 159.913 80.1741 164.816 80.1741C169.719 80.1741 170.83 75.2098 170.83 71.1619V50.875H185.266V91.6493C185.266 114.046 164.378 118.256 146.764 109.072L147.369 98.3894C156.044 102.676 171.737 105.626 171.737 91.6493L171.727 85.9213Z" fill="#89B3E0"/>
<path d="M193.97 174.802V176.902H178.014L168.111 159.212H160.196V176.902H145.107V120.357C153.685 120.357 162.009 120.28 170.509 120.357C184.447 120.357 191.29 130.457 191.29 140.405C191.202 146.868 188.366 153.083 182.712 156.883L193.97 174.802ZM170.382 147.183C174.593 147.183 176.649 143.622 176.649 140.071C176.649 136.519 174.7 133.207 170.382 133.207H159.952V147.183H170.382Z" fill="#075A97"/>
<path d="M236.858 150.572C236.605 158.649 229.518 162.286 222.237 162.687C218.412 162.947 214.581 162.251 211.106 160.663C212.012 165.838 216.711 167.451 222.315 167.212C227.023 166.964 232.462 165.599 235.269 164.138L235.844 174.401C231.312 176.988 226.692 177.552 221.409 177.79C207.763 178.439 198.015 172.215 197.577 158.324C197.167 144.271 207.47 137.321 217.705 136.92C226.916 136.682 237.063 140.147 236.858 150.572ZM219.449 154.448C221.399 154.372 223.495 152.997 223.407 150.811C223.407 148.071 220.112 147.498 217.968 147.498C215.326 147.746 212.695 149.121 211.7 153.074C214.123 154.122 216.766 154.593 219.411 154.448H219.449Z" fill="#075A97"/>
<path d="M270.632 153.236C270.183 151.92 269.317 150.78 268.16 149.982C267.002 149.183 265.615 148.768 264.199 148.796C260.407 148.873 256.401 151.66 256.401 157.388C256.401 163.117 260.3 165.981 263.994 165.981C265.505 166.026 266.985 165.562 268.187 164.665C269.388 163.768 270.238 162.493 270.593 161.054H283.947C282.553 172.196 273.069 177.771 263.478 177.771C252.921 177.771 242.365 171.088 242.365 157.341C242.365 143.593 253.253 136.739 263.565 136.739C273.05 136.739 282.368 142.152 283.849 153.217L270.632 153.236Z" fill="#075A97"/>
<path d="M316.152 136.834C319.04 136.719 321.885 137.545 324.242 139.182L321.435 150.323C319.437 148.969 317.039 148.298 314.612 148.414C309.904 148.662 305.839 151.564 305.839 157.464V177.016H292.076V149.884C292.076 146.896 291.911 145.435 288.528 145.435V137.932C294.055 136.633 304.777 135.745 305.43 143.259C307.038 138.944 311.619 136.834 316.152 136.834Z" fill="#075A97"/>
<path d="M369.021 138.046V165.512C369.021 168.099 369.099 169.331 372.315 169.331V176.844C366.954 178.133 355.326 179.832 355.326 171.183C353.269 175.307 348.503 177.57 343.951 177.57C332.069 177.57 329.272 169.932 329.272 160.118V138.046H343.454V160.099C343.21 164.787 345.842 166.782 348.649 166.782C351.944 166.782 355.004 164.109 355.004 159.832V138.046H369.021Z" fill="#075A97"/>
<path d="M386.966 119.879C391.011 119.879 395.134 122.456 395.134 127.631C395.134 132.805 391.011 135.469 386.966 135.469C382.92 135.469 378.885 132.881 378.885 127.631C378.885 122.38 382.959 119.879 386.966 119.879ZM393.984 176.988H379.986L380.074 138.619H394.013L393.984 176.988Z" fill="#075A97"/>
<path d="M421.081 138.047H433.207V147.747H421.081V161.341C421.081 168.454 428.752 167.967 433.86 166.191L435.02 176.444C421.373 180.168 407.308 178.144 407.308 161.666V147.747L400.3 146.859V138.047H407.308L408.877 126.018H421.081V138.047Z" fill="#075A97"/>
<path d="M103.867 125.694H87.6279C87.3062 110.524 96.6636 101.674 111.723 101.674C132.056 101.674 141.94 121.474 129.59 139.288C129.59 139.498 129.366 140.128 114.969 159.518H138.85V176.616H86.7506V172.511L112.893 135.279C118.059 127.698 119.774 118.954 111.06 118.629C107.532 118.533 103.867 120.739 103.867 125.694Z" fill="#BED000"/>
<path d="M275.243 125.073H206.281V0.668701H275.243V23.8197L286.013 38.1112H275.243V125.073Z" fill="#EE7502"/>
<path d="M233.534 27.8286C235.795 27.8286 237.628 26.0334 237.628 23.819C237.628 21.6045 235.795 19.8093 233.534 19.8093C231.273 19.8093 229.44 21.6045 229.44 23.819C229.44 26.0334 231.273 27.8286 233.534 27.8286Z" fill="white"/>
<path d="M248.535 27.8286C250.796 27.8286 252.629 26.0334 252.629 23.819C252.629 21.6045 250.796 19.8093 248.535 19.8093C246.274 19.8093 244.441 21.6045 244.441 23.819C244.441 26.0334 246.274 27.8286 248.535 27.8286Z" fill="white"/>
<path d="M275.243 49.9299C271.553 50.9108 267.75 51.4242 263.926 51.4574C257.366 51.4572 250.884 50.0603 244.929 47.3635C238.975 44.6666 233.69 40.7343 229.44 35.8389V42.4643C238.717 51.1772 251.073 56.0412 263.926 56.0399C267.741 56.0026 271.539 55.5317 275.243 54.6365V49.9299Z" fill="white"/>
</g>
<defs>
<clipPath id="clip0">
<rect width="435" height="178" fill="white"/>
</clipPath>
</defs>
</svg>
