<svg width="40" height="40" viewBox="0 0 40 40" fill="none" xmlns="http://www.w3.org/2000/svg">
<path d="M6.66665 6.66663H33.3333C35.1666 6.66663 36.6666 8.16663 36.6666 9.99996V30C36.6666 31.8333 35.1666 33.3333 33.3333 33.3333H6.66665C4.83331 33.3333 3.33331 31.8333 3.33331 30V9.99996C3.33331 8.16663 4.83331 6.66663 6.66665 6.66663Z" stroke="#F37A1F" stroke-width="2" stroke-linecap="round" stroke-linejoin="round"/>
<path d="M36.6666 10L20 21.6667L3.33331 10" stroke="#F37A1F" stroke-width="2" stroke-linecap="round" stroke-linejoin="round"/>
</svg>
